{"count":362,"next":"https://ll.thespacedevs.com/2.0.0/launch/upcoming/?limit=10&offset=10","previous":null,"results":[{"id":"5d4099bf-a0be-4f54-b236-b6ab3aed4146","url":"https://ll.thespacedevs.com/2.0.0/launch/5d4099bf-a0be-4f54-b236-b6ab3aed4146/","launch_library_id":null,"slug":"falcon-9-block-5-nrol-179","name":"Falcon 9 Block 5 | NROL-179","status":{"id":1,"name":"Go"},"net":"2026-06-19T08:40:00Z","window_end":"2026-06-19T09:15:00Z","window_start":"2026-06-19T08:40:00Z","inhold":false,"tbdtime":false,"tbddate":false,"probability":null,"holdreason":"","failreason":"","hashtag":null,"launch_service_provider":{"id":121,"url":"https://ll.thespacedevs.com/2.0.0/agencies/121/","name":"SpaceX","type":"Commercial"},"rocket":{"id":9058,"configuration":{"id":164,"launch_library_id":188,"url":"https://ll.thespacedevs.com/2.0.0/config/launcher/164/","name":"Falcon 9","family":"Falcon","full_name":"Falcon 9 Block 5","variant":"Block 5"}},"mission":{"id":7653,"launch_library_id":null,"name":"NROL-179","description":"Fourteenth batch of satellites for a reconnaissance satellite constellation built by SpaceX and Northrop Grumman for the National Reconnaissance Office to provide imaging and other reconnaissance capabilities.","launch_designator":null,"type":"Government/Top Secret","orbit":{"id":25,"name":"Unknown","abbrev":"N/A"}},"pad":{"id":16,"url":"https://ll.thespacedevs.com/2.0.0/pad/16/","agency_id":null,"name":"Space Launch Complex 4E","info_url":null,"wiki_url":"https://en.wikipedia.org/wiki/Vandenberg_Space_Launch_Complex_4#SLC-4E","map_url":"https://www.google.com/maps?q=34.632,-120.611","latitude":"34.632","longitude":"-120.611","location":{"id":11,"url":"https://ll.thespacedevs.com/2.0.0/location/11/","name":"Vandenberg SFB, CA, USA","country_code":"USA","map_image":"https://thespacedevs-prod.nyc3.digitaloceanspaces.com/media/map_images/location_11_20200803142416.jpg","total_launch_count":890,"total_landing_count":34},"map_image":"https://thespacedevs-prod.nyc3.digitaloceanspaces.com/media/map_images/pad_16_20200803143532.jpg","total_launch_count":274},"webcast_live":false,"image":"https://thespacedevs-prod.nyc3.digitaloceanspaces.com/media/images/falcon_9_on_slc_image_20241024165956.jpg","infographic":null,"program":[]},{"id":"74bf8472-9ba1-42d6-9245-b014f8e91de9","url":"https://ll.thespacedevs.com/2.0.0/launch/74bf8472-9ba1-42d6-9245-b014f8e91de9/","launch_library_id":null,"slug":"falcon-9-block-5-project-starfall-demonstration-mi","name":"Falcon 9 Block 5 | Project Starfall Demonstration Mission","status":{"id":2,"name":"TBD"},"net":"2026-06-21T10:43:00Z","window_end":"2026-06-21T15:26:00Z","window_start":"2026-06-21T10:43:00Z","inhold":false,"tbdtime":false,"tbddate":false,"probability":null,"holdreason":"","failreason":"","hashtag":null,"launch_service_provider":{"id":121,"url":"https://ll.thespacedevs.com/2.0.0/agencies/121/","name":"SpaceX","type":"Commercial"},"rocket":{"id":9063,"configuration":{"id":164,"launch_library_id":188,"url":"https://ll.thespacedevs.com/2.0.0/config/launcher/164/","name":"Falcon 9","family":"Falcon","full_name":"Falcon 9 Block 5","variant":"Block 5"}},"mission":{"id":7658,"launch_library_id":null,"name":"Project Starfall Demonstration Mission","description":"Note: Mission profile and payload details are TBD.\r\n\r\nDemonstration mission for SpaceX’s Project Starfall, which aims to mass-produce reentry capsules designed to autonomously transport valuable customer experiments and other payloads safely back from space to Earth, including for in-orbit manufacturing. \r\n\r\nStarfall is a cylindrical shaped capsule approximately 0.75 meters tall with a diameter of 3.1 meters, weighing approximately 2100 kilograms, and capable of carrying 1000 kilograms of payload. It is designed to be carried on Starship flights.","launch_designator":null,"type":"Technology","orbit":{"id":8,"name":"Low Earth Orbit","abbrev":"LEO"}},"pad":{"id":80,"url":"https://ll.thespacedevs.com/2.0.0/pad/80/","agency_id":121,"name":"Space Launch Complex 40","info_url":null,"wiki_url":"https://en.wikipedia.org/wiki/Cape_Canaveral_Air_Force_Station_Space_Launch_Complex_40","map_url":"https://www.google.com/maps?q=28.56194122,-80.57735736","latitude":"28.56194122","longitude":"-80.57735736","location":{"id":12,"url":"https://ll.thespacedevs.com/2.0.0/location/12/","name":"Cape Canaveral SFS, FL, USA","country_code":"USA","map_image":"https://thespacedevs-prod.nyc3.digitaloceanspaces.com/media/map_images/location_12_20200803142519.jpg","total_launch_count":1115,"total_landing_count":75},"map_image":"https://thespacedevs-prod.nyc3.digitaloceanspaces.com/media/map_images/pad_80_20200803143323.jpg","total_launch_count":388},"webcast_live":false,"image":"https://thespacedevs-prod.nyc3.digitaloceanspaces.com/media/images/falcon_9_liftof_image_20241206131356.jpg","infographic":null,"program":[]},{"id":"de5fbae3-66b9-4bbf-8938-4d55f3318c07","url":"https://ll.thespacedevs.com/2.0.0/launch/de5fbae3-66b9-4bbf-8938-4d55f3318c07/","launch_library_id":null,"slug":"falcon-9-block-5-starlink-group-17-28","name":"Falcon 9 Block 5 | Starlink Group 17-28","status":{"id":1,"name":"Go"},"net":"2026-06-21T14:00:00Z","window_end":"2026-06-21T18:00:00Z","window_start":"2026-06-21T14:00:00Z","inhold":false,"tbdtime":false,"tbddate":false,"probability":null,"holdreason":"","failreason":"","hashtag":null,"launch_service_provider":{"id":121,"url":"https://ll.thespacedevs.com/2.0.0/agencies/121/","name":"SpaceX","type":"Commercial"},"rocket":{"id":9059,"configuration":{"id":164,"launch_library_id":188,"url":"https://ll.thespacedevs.com/2.0.0/config/launcher/164/","name":"Falcon 9","family":"Falcon","full_name":"Falcon 9 Block 5","variant":"Block 5"}},"mission":{"id":7654,"launch_library_id":null,"name":"Starlink Group 17-28","description":"A batch of 24 satellites for the Starlink mega-constellation - SpaceX's project for space-based Internet communication system.","launch_designator":null,"type":"Communications","orbit":{"id":8,"name":"Low Earth Orbit","abbrev":"LEO"}},"pad":{"id":16,"url":"https://ll.thespacedevs.com/2.0.0/pad/16/","agency_id":null,"name":"Space Launch Complex 4E","info_url":null,"wiki_url":"https://en.wikipedia.org/wiki/Vandenberg_Space_Launch_Complex_4#SLC-4E","map_url":"https://www.google.com/maps?q=34.632,-120.611","latitude":"34.632","longitude":"-120.611","location":{"id":11,"url":"https://ll.thespacedevs.com/2.0.0/location/11/","name":"Vandenberg SFB, CA, USA","country_code":"USA","map_image":"https://thespacedevs-prod.nyc3.digitaloceanspaces.com/media/map_images/location_11_20200803142416.jpg","total_launch_count":890,"total_landing_count":34},"map_image":"https://thespacedevs-prod.nyc3.digitaloceanspaces.com/media/map_images/pad_16_20200803143532.jpg","total_launch_count":274},"webcast_live":false,"image":"https://thespacedevs-prod.nyc3.digitaloceanspaces.com/media/images/falcon2520925_image_20221009234147.png","infographic":null,"program":[{"id":25,"url":"https://ll.thespacedevs.com/2.0.0/program/25/","name":"Starlink","description":"Starlink is a satellite internet constellation operated by American aerospace company SpaceX","agencies":[{"id":121,"url":"https://ll.thespacedevs.com/2.0.0/agencies/121/","name":"SpaceX","type":"Commercial"}],"image_url":"https://thespacedevs-prod.nyc3.digitaloceanspaces.com/media/images/starlink_program_20231228154508.jpeg","start_date":"2018-02-22T14:17:00Z","end_date":null,"info_url":"https://starlink.com","wiki_url":"https://en.wikipedia.org/wiki/Starlink"}]},{"id":"f72c6ea1-dc44-4f0e-bb51-1c52eff9efe8","url":"https://ll.thespacedevs.com/2.0.0/launch/f72c6ea1-dc44-4f0e-bb51-1c52eff9efe8/","launch_library_id":null,"slug":"long-march-7a-unknown-payload","name":"Long March 7A | Unknown Payload","status":{"id":1,"name":"Go"},"net":"2026-06-23T02:10:00Z","window_end":"2026-06-23T03:00:00Z","window_start":"2026-06-23T02:02:00Z","inhold":false,"tbdtime":true,"tbddate":false,"probability":null,"holdreason":"","failreason":"","hashtag":null,"launch_service_provider":{"id":88,"url":"https://ll.thespacedevs.com/2.0.0/agencies/88/","name":"China Aerospace Science and Technology Corporation","type":"Government"},"rocket":{"id":9045,"configuration":{"id":216,"launch_library_id":247,"url":"https://ll.thespacedevs.com/2.0.0/config/launcher/216/","name":"Long March 7A","family":"Long March","full_name":"Long March 7A","variant":"A"}},"mission":{"id":7640,"launch_library_id":null,"name":"Unknown Payload","description":"Details TBD.","launch_designator":null,"type":"Unknown","orbit":{"id":25,"name":"Unknown","abbrev":"N/A"}},"pad":{"id":176,"url":"https://ll.thespacedevs.com/2.0.0/pad/176/","agency_id":null,"name":"201","info_url":null,"wiki_url":"https://en.wikipedia.org/wiki/Wenchang_Spacecraft_Launch_Site","map_url":"https://www.google.com/maps?q=19.618452,110.955356","latitude":"19.618452","longitude":"110.955356","location":{"id":8,"url":"https://ll.thespacedevs.com/2.0.0/location/8/","name":"Wenchang Space Launch Site, People's Republic of China","country_code":"CHN","map_image":"https://thespacedevs-prod.nyc3.digitaloceanspaces.com/media/map_images/location_8_20200803142445.jpg","total_launch_count":65,"total_landing_count":0},"map_image":"https://thespacedevs-prod.nyc3.digitaloceanspaces.com/media/map_images/pad_176_20200803143412.jpg","total_launch_count":30},"webcast_live":false,"image":"https://thespacedevs-prod.nyc3.digitaloceanspaces.com/media/images/cz-7a_launch_2_image_20251206093324.jpeg","infographic":null,"program":[]},{"id":"a4fb0d1a-2655-4552-b950-f2f6340ef85a","url":"https://ll.thespacedevs.com/2.0.0/launch/a4fb0d1a-2655-4552-b950-f2f6340ef85a/","launch_library_id":null,"slug":"falcon-9-block-5-starlink-group-17-45","name":"Falcon 9 Block 5 | Starlink Group 17-45","status":{"id":1,"name":"Go"},"net":"2026-06-25T02:48:00Z","window_end":"2026-06-25T04:48:00Z","window_start":"2026-06-25T02:48:00Z","inhold":false,"tbdtime":false,"tbddate":false,"probability":null,"holdreason":"","failreason":"","hashtag":null,"launch_service_provider":{"id":121,"url":"https://ll.thespacedevs.com/2.0.0/agencies/121/","name":"SpaceX","type":"Commercial"},"rocket":{"id":9060,"configuration":{"id":164,"launch_library_id":188,"url":"https://ll.thespacedevs.com/2.0.0/config/launcher/164/","name":"Falcon 9","family":"Falcon","full_name":"Falcon 9 Block 5","variant":"Block 5"}},"mission":{"id":7655,"launch_library_id":null,"name":"Starlink Group 17-45","description":"A batch of 24 satellites for the Starlink mega-constellation - SpaceX's project for space-based Internet communication system.","launch_designator":null,"type":"Communications","orbit":{"id":8,"name":"Low Earth Orbit","abbrev":"LEO"}},"pad":{"id":16,"url":"https://ll.thespacedevs.com/2.0.0/pad/16/","agency_id":null,"name":"Space Launch Complex 4E","info_url":null,"wiki_url":"https://en.wikipedia.org/wiki/Vandenberg_Space_Launch_Complex_4#SLC-4E","map_url":"https://www.google.com/maps?q=34.632,-120.611","latitude":"34.632","longitude":"-120.611","location":{"id":11,"url":"https://ll.thespacedevs.com/2.0.0/location/11/","name":"Vandenberg SFB, CA, USA","country_code":"USA","map_image":"https://thespacedevs-prod.nyc3.digitaloceanspaces.com/media/map_images/location_11_20200803142416.jpg","total_launch_count":890,"total_landing_count":34},"map_image":"https://thespacedevs-prod.nyc3.digitaloceanspaces.com/media/map_images/pad_16_20200803143532.jpg","total_launch_count":274},"webcast_live":false,"image":"https://thespacedevs-prod.nyc3.digitaloceanspaces.com/media/images/falcon2520925_image_20221009234147.png","infographic":null,"program":[{"id":25,"url":"https://ll.thespacedevs.com/2.0.0/program/25/","name":"Starlink","description":"Starlink is a satellite internet constellation operated by American aerospace company SpaceX","agencies":[{"id":121,"url":"https://ll.thespacedevs.com/2.0.0/agencies/121/","name":"SpaceX","type":"Commercial"}],"image_url":"https://thespacedevs-prod.nyc3.digitaloceanspaces.com/media/images/starlink_program_20231228154508.jpeg","start_date":"2018-02-22T14:17:00Z","end_date":null,"info_url":"https://starlink.com","wiki_url":"https://en.wikipedia.org/wiki/Starlink"}]},{"id":"f596ad48-881e-47d6-806d-113c6dd97427","url":"https://ll.thespacedevs.com/2.0.0/launch/f596ad48-881e-47d6-806d-113c6dd97427/","launch_library_id":null,"slug":"pegasus-xl-swift-boost-mission","name":"Pegasus XL | Swift Boost Mission","status":{"id":1,"name":"Go"},"net":"2026-06-27T09:00:00Z","window_end":"2026-06-27T14:28:00Z","window_start":"2026-06-27T09:00:00Z","inhold":false,"tbdtime":true,"tbddate":false,"probability":null,"holdreason":"","failreason":"","hashtag":null,"launch_service_provider":{"id":257,"url":"https://ll.thespacedevs.com/2.0.0/agencies/257/","name":"Northrop Grumman Space Systems","type":"Commercial"},"rocket":{"id":8811,"configuration":{"id":173,"launch_library_id":8,"url":"https://ll.thespacedevs.com/2.0.0/config/launcher/173/","name":"Pegasus XL","family":"Pegasus","full_name":"Pegasus XL","variant":""}},"mission":{"id":7402,"launch_library_id":null,"name":"Swift Boost Mission","description":"Contracted by NASA under the Small Business Innovation Research Phase 3 contract, Katalyst Space Technologies' LINK servicing spacecraft will rendezvous and attach to NASA’s Neil Gehrels Swift Observatory to re-boost its orbit. This aims to demonstrate a key capability for the future of space exploration and extending the Swift mission’s science lifetime in gamma ray astronomy.","launch_designator":null,"type":"Mission Extension","orbit":{"id":8,"name":"Low Earth Orbit","abbrev":"LEO"}},"pad":{"id":59,"url":"https://ll.thespacedevs.com/2.0.0/pad/59/","agency_id":null,"name":"Kwajalein Atoll","info_url":null,"wiki_url":"https://en.wikipedia.org/wiki/Kwajalein_Atoll","map_url":"https://www.google.com/maps?q=8.716667,167.733333","latitude":"8.716667","longitude":"167.733333","location":{"id":20,"url":"https://ll.thespacedevs.com/2.0.0/location/20/","name":"Air launch to orbit","country_code":"???","map_image":"https://thespacedevs-prod.nyc3.digitaloceanspaces.com/media/map_images/location_20_20200803142433.jpg","total_launch_count":51,"total_landing_count":0},"map_image":"https://thespacedevs-prod.nyc3.digitaloceanspaces.com/media/map_images/pad_59_20200803143427.jpg","total_launch_count":4},"webcast_live":false,"image":"https://thespacedevs-prod.nyc3.digitaloceanspaces.com/media/images/pegasus_xl_moun_image_20240307124328.jpeg","infographic":"https://thespacedevs-prod.nyc3.digitaloceanspaces.com/media/infographic_images/pegasus2520xl_infographic_20260612071925.jpeg","program":[]},{"id":"1b23eb18-e06e-4058-9b42-e95ca0980511","url":"https://ll.thespacedevs.com/2.0.0/launch/1b23eb18-e06e-4058-9b42-e95ca0980511/","launch_library_id":null,"slug":"spectrum-onward-and-upward","name":"Spectrum | Onward and Upward","status":{"id":2,"name":"TBD"},"net":"2026-06-30T00:00:00Z","window_end":"2026-06-30T00:00:00Z","window_start":"2026-06-30T00:00:00Z","inhold":false,"tbdtime":true,"tbddate":true,"probability":null,"holdreason":"","failreason":"","hashtag":null,"launch_service_provider":{"id":1046,"url":"https://ll.thespacedevs.com/2.0.0/agencies/1046/","name":"Isar Aerospace","type":"Private"},"rocket":{"id":8716,"configuration":{"id":491,"launch_library_id":null,"url":"https://ll.thespacedevs.com/2.0.0/config/launcher/491/","name":"Spectrum","family":"","full_name":"Spectrum","variant":""}},"mission":{"id":7309,"launch_library_id":null,"name":"Onward and Upward","description":"Second test flight of the Isar Spectrum launch vehicle. This launch will carry 5 cubesats and 1 non-separable experiment as part of European Space Agency (ESA)'s “Boost!” program:\r\n\r\n* CyBEEsat (TU Berlin)\r\n* TriSat-S (University of Maribor)\r\n* Platform 6 (EnduroSat)\r\n* FramSat-1 (NTNU)\r\n* SpaceTeamSat1 (TU Wien Space Team)\r\n* Let It Go (Dcubed, non-separable experiment)","launch_designator":null,"type":"Test Flight","orbit":{"id":17,"name":"Sun-Synchronous Orbit","abbrev":"SSO"}},"pad":{"id":51,"url":"https://ll.thespacedevs.com/2.0.0/pad/51/","agency_id":null,"name":"Orbital Launch Pad","info_url":null,"wiki_url":"https://en.wikipedia.org/wiki/And%C3%B8ya_Space","map_url":"https://www.google.com/maps?q=69.1084,15.5895","latitude":"69.1084","longitude":"15.5895","location":{"id":161,"url":"https://ll.thespacedevs.com/2.0.0/location/161/","name":"Andøya Spaceport","country_code":"NOR","map_image":"https://thespacedevs-prod.nyc3.digitaloceanspaces.com/media/map_images/location_161_20240109072235.jpg","total_launch_count":1,"total_landing_count":0},"map_image":"https://thespacedevs-prod.nyc3.digitaloceanspaces.com/media/map_images/pad_51_20200803143605.jpg","total_launch_count":1},"webcast_live":false,"image":"https://thespacedevs-prod.nyc3.digitaloceanspaces.com/media/images/spectrum_on_the_image_20250321072643.jpeg","infographic":null,"program":[]},{"id":"2d0472b9-463d-49c8-afb1-7925e49a3368","url":"https://ll.thespacedevs.com/2.0.0/launch/2d0472b9-463d-49c8-afb1-7925e49a3368/","launch_library_id":null,"slug":"falcon-9-block-5-sda-tranche-1-tracking-layer-a","name":"Falcon 9 Block 5 | SDA Tranche 1 Tracking Layer A","status":{"id":2,"name":"TBD"},"net":"2026-06-30T00:00:00Z","window_end":"2026-06-30T00:00:00Z","window_start":"2026-06-30T00:00:00Z","inhold":false,"tbdtime":true,"tbddate":true,"probability":null,"holdreason":"","failreason":"","hashtag":null,"launch_service_provider":{"id":121,"url":"https://ll.thespacedevs.com/2.0.0/agencies/121/","name":"SpaceX","type":"Commercial"},"rocket":{"id":8072,"configuration":{"id":164,"launch_library_id":188,"url":"https://ll.thespacedevs.com/2.0.0/config/launcher/164/","name":"Falcon 9","family":"Falcon","full_name":"Falcon 9 Block 5","variant":"Block 5"}},"mission":{"id":6625,"launch_library_id":null,"name":"SDA Tranche 1 Tracking Layer A","description":"Tranche 1 Tracking Layer A is one of five missions by the United States Space Force Space Development Agency (SDA) for the Proliferated Warfighter Space Architecture (PWSA) Tranche 1 Tracking Layer constellation, which will provide global indications, warning, tracking, and targeting of advanced missile threats, including hypersonic missile systems.","launch_designator":null,"type":"Government/Top Secret","orbit":{"id":13,"name":"Polar Orbit","abbrev":"PO"}},"pad":{"id":16,"url":"https://ll.thespacedevs.com/2.0.0/pad/16/","agency_id":null,"name":"Space Launch Complex 4E","info_url":null,"wiki_url":"https://en.wikipedia.org/wiki/Vandenberg_Space_Launch_Complex_4#SLC-4E","map_url":"https://www.google.com/maps?q=34.632,-120.611","latitude":"34.632","longitude":"-120.611","location":{"id":11,"url":"https://ll.thespacedevs.com/2.0.0/location/11/","name":"Vandenberg SFB, CA, USA","country_code":"USA","map_image":"https://thespacedevs-prod.nyc3.digitaloceanspaces.com/media/map_images/location_11_20200803142416.jpg","total_launch_count":890,"total_landing_count":34},"map_image":"https://thespacedevs-prod.nyc3.digitaloceanspaces.com/media/map_images/pad_16_20200803143532.jpg","total_launch_count":274},"webcast_live":false,"image":"https://thespacedevs-prod.nyc3.digitaloceanspaces.com/media/images/falcon_9_image_20230807133459.jpeg","infographic":null,"program":[]},{"id":"3b94ad50-3505-496e-8a95-b0bc4c0dadc6","url":"https://ll.thespacedevs.com/2.0.0/launch/3b94ad50-3505-496e-8a95-b0bc4c0dadc6/","launch_library_id":null,"slug":"themis-demonstrator-t1h-1","name":"Themis Demonstrator | T1H-1","status":{"id":2,"name":"TBD"},"net":"2026-06-30T00:00:00Z","window_end":"2026-06-30T00:00:00Z","window_start":"2026-06-30T00:00:00Z","inhold":false,"tbdtime":true,"tbddate":true,"probability":null,"holdreason":"","failreason":"","hashtag":null,"launch_service_provider":{"id":27,"url":"https://ll.thespacedevs.com/2.0.0/agencies/27/","name":"European Space Agency","type":"Multinational"},"rocket":{"id":8717,"configuration":{"id":523,"launch_library_id":null,"url":"https://ll.thespacedevs.com/2.0.0/config/launcher/523/","name":"Themis Demonstrator","family":"","full_name":"Themis Demonstrator","variant":""}},"mission":{"id":7310,"launch_library_id":null,"name":"T1H-1","description":"First low-altitude hop test of a Themis demonstrator, with a targeted altitude up to 100 m.","launch_designator":null,"type":"Test Flight","orbit":{"id":15,"name":"Suborbital","abbrev":"Sub"}},"pad":{"id":239,"url":"https://ll.thespacedevs.com/2.0.0/pad/239/","agency_id":1044,"name":"Launch Complex 3B","info_url":null,"wiki_url":"https://en.wikipedia.org/wiki/Esrange#Reusable_Rocket_Testing","map_url":"https://www.google.com/maps?q=67.877368,21.165001","latitude":"67.877368","longitude":"21.165001","location":{"id":178,"url":"https://ll.thespacedevs.com/2.0.0/location/178/","name":"Esrange Space Center","country_code":"SWE","map_image":"https://thespacedevs-prod.nyc3.digitaloceanspaces.com/media/map_images/location_esrange_space_center_20241208021356.jpg","total_launch_count":0,"total_landing_count":0},"map_image":"https://thespacedevs-prod.nyc3.digitaloceanspaces.com/media/map_images/pad_launch_complex_3b_20250916091141.jpg","total_launch_count":0},"webcast_live":false,"image":"https://thespacedevs-prod.nyc3.digitaloceanspaces.com/media/images/themis_t1h_on_t_image_20250919095336.jpg","infographic":null,"program":[]},{"id":"4541ce85-0e38-42ac-a9a0-20474bb5f2cd","url":"https://ll.thespacedevs.com/2.0.0/launch/4541ce85-0e38-42ac-a9a0-20474bb5f2cd/","launch_library_id":null,"slug":"falcon-9-block-5-sda-tranche-1-transport-layer-d","name":"Falcon 9 Block 5 | SDA Tranche 1 Transport Layer D","status":{"id":2,"name":"TBD"},"net":"2026-06-30T00:00:00Z","window_end":"2026-06-30T00:00:00Z","window_start":"2026-06-30T00:00:00Z","inhold":false,"tbdtime":true,"tbddate":true,"probability":null,"holdreason":"","failreason":"","hashtag":null,"launch_service_provider":{"id":121,"url":"https://ll.thespacedevs.com/2.0.0/agencies/121/","name":"SpaceX","type":"Commercial"},"rocket":{"id":7894,"configuration":{"id":164,"launch_library_id":188,"url":"https://ll.thespacedevs.com/2.0.0/config/launcher/164/","name":"Falcon 9","family":"Falcon","full_name":"Falcon 9 Block 5","variant":"Block 5"}},"mission":{"id":6403,"launch_library_id":null,"name":"SDA Tranche 1 Transport Layer D","description":"Tranche 1 Transport Layer D is one of six missions by the United States Space Force Space Development Agency (SDA) for the Proliferated Warfighter Space Architecture (PWSA) Tranche 1 Transport Layer constellation, which will provide assured, resilient, low-latency military data and connectivity worldwide to the full range of warfighter platforms from Low Earth Orbit satellites.\r\n\r\nThe constellation will be interconnected with Optical Inter-Satellite Links (OISLs) which have significantly increased performance over existing radio frequency crosslinks. It is expected to operate over Ka band, have stereo coverage and be dynamically networked for simpler hand-offs, greater bandwidth and fault tolerance.","launch_designator":null,"type":"Government/Top Secret","orbit":{"id":13,"name":"Polar Orbit","abbrev":"PO"}},"pad":{"id":16,"url":"https://ll.thespacedevs.com/2.0.0/pad/16/","agency_id":null,"name":"Space Launch Complex 4E","info_url":null,"wiki_url":"https://en.wikipedia.org/wiki/Vandenberg_Space_Launch_Complex_4#SLC-4E","map_url":"https://www.google.com/maps?q=34.632,-120.611","latitude":"34.632","longitude":"-120.611","location":{"id":11,"url":"https://ll.thespacedevs.com/2.0.0/location/11/","name":"Vandenberg SFB, CA, USA","country_code":"USA","map_image":"https://thespacedevs-prod.nyc3.digitaloceanspaces.com/media/map_images/location_11_20200803142416.jpg","total_launch_count":890,"total_landing_count":34},"map_image":"https://thespacedevs-prod.nyc3.digitaloceanspaces.com/media/map_images/pad_16_20200803143532.jpg","total_launch_count":274},"webcast_live":false,"image":"https://thespacedevs-prod.nyc3.digitaloceanspaces.com/media/images/falcon_9_image_20230807133459.jpeg","infographic":null,"program":[]}]}